('C:\\Users\\cance\\OneDrive\\Escritorio\\confirmacion_metrologica\\build\\ConMe '
 '1.0.0\\ConMe 1.0.0.pkg',
 {'BINARY': True,
  'DATA': True,
  'EXECUTABLE': True,
  'EXTENSION': True,
  'PYMODULE': True,
  'PYSOURCE': True,
  'PYZ': False,
  'SPLASH': True},
 [('PYZ-00.pyz',
   'C:\\Users\\cance\\OneDrive\\Escritorio\\confirmacion_metrologica\\build\\ConMe '
   '1.0.0\\PYZ-00.pyz',
   'PYZ'),
  ('struct',
   'C:\\Users\\cance\\OneDrive\\Escritorio\\confirmacion_metrologica\\build\\ConMe '
   '1.0.0\\localpycs\\struct.pyc',
   'PYMODULE'),
  ('pyimod01_archive',
   'C:\\Users\\cance\\OneDrive\\Escritorio\\confirmacion_metrologica\\build\\ConMe '
   '1.0.0\\localpycs\\pyimod01_archive.pyc',
   'PYMODULE'),
  ('pyimod02_importers',
   'C:\\Users\\cance\\OneDrive\\Escritorio\\confirmacion_metrologica\\build\\ConMe '
   '1.0.0\\localpycs\\pyimod02_importers.pyc',
   'PYMODULE'),
  ('pyimod03_ctypes',
   'C:\\Users\\cance\\OneDrive\\Escritorio\\confirmacion_metrologica\\build\\ConMe '
   '1.0.0\\localpycs\\pyimod03_ctypes.pyc',
   'PYMODULE'),
  ('pyimod04_pywin32',
   'C:\\Users\\cance\\OneDrive\\Escritorio\\confirmacion_metrologica\\build\\ConMe '
   '1.0.0\\localpycs\\pyimod04_pywin32.pyc',
   'PYMODULE'),
  ('pyiboot01_bootstrap',
   'C:\\Users\\cance\\AppData\\Local\\Programs\\Python\\Python310\\lib\\site-packages\\PyInstaller\\loader\\pyiboot01_bootstrap.py',
   'PYSOURCE'),
  ('pyi_rth_inspect',
   'C:\\Users\\cance\\AppData\\Local\\Programs\\Python\\Python310\\Lib\\site-packages\\PyInstaller\\hooks\\rthooks\\pyi_rth_inspect.py',
   'PYSOURCE'),
  ('pyi_rth_pkgutil',
   'C:\\Users\\cance\\AppData\\Local\\Programs\\Python\\Python310\\Lib\\site-packages\\PyInstaller\\hooks\\rthooks\\pyi_rth_pkgutil.py',
   'PYSOURCE'),
  ('pyi_rth_multiprocessing',
   'C:\\Users\\cance\\AppData\\Local\\Programs\\Python\\Python310\\Lib\\site-packages\\PyInstaller\\hooks\\rthooks\\pyi_rth_multiprocessing.py',
   'PYSOURCE'),
  ('pyi_rth_setuptools',
   'C:\\Users\\cance\\AppData\\Local\\Programs\\Python\\Python310\\Lib\\site-packages\\PyInstaller\\hooks\\rthooks\\pyi_rth_setuptools.py',
   'PYSOURCE'),
  ('pyi_rth_pkgres',
   'C:\\Users\\cance\\AppData\\Local\\Programs\\Python\\Python310\\Lib\\site-packages\\PyInstaller\\hooks\\rthooks\\pyi_rth_pkgres.py',
   'PYSOURCE'),
  ('pyi_rth_traitlets',
   'C:\\Users\\cance\\AppData\\Local\\Programs\\Python\\Python310\\Lib\\site-packages\\_pyinstaller_hooks_contrib\\hooks\\rthooks\\pyi_rth_traitlets.py',
   'PYSOURCE'),
  ('pyi_rth_pyside2',
   'C:\\Users\\cance\\AppData\\Local\\Programs\\Python\\Python310\\Lib\\site-packages\\PyInstaller\\hooks\\rthooks\\pyi_rth_pyside2.py',
   'PYSOURCE'),
  ('pyi_rth__tkinter',
   'C:\\Users\\cance\\AppData\\Local\\Programs\\Python\\Python310\\Lib\\site-packages\\PyInstaller\\hooks\\rthooks\\pyi_rth__tkinter.py',
   'PYSOURCE'),
  ('pyi_rth_mplconfig',
   'C:\\Users\\cance\\AppData\\Local\\Programs\\Python\\Python310\\Lib\\site-packages\\PyInstaller\\hooks\\rthooks\\pyi_rth_mplconfig.py',
   'PYSOURCE'),
  ('pyi_rth_pyqt5',
   'C:\\Users\\cance\\AppData\\Local\\Programs\\Python\\Python310\\Lib\\site-packages\\PyInstaller\\hooks\\rthooks\\pyi_rth_pyqt5.py',
   'PYSOURCE'),
  ('main',
   'C:\\Users\\cance\\OneDrive\\Escritorio\\confirmacion_metrologica\\main.py',
   'PYSOURCE')],
 True,
 False,
 False,
 [],
 None,
 None,
 None)
